<?xml version="1.0" encoding="UTF-8" standalone="no"?>
<svg width="144px" height="32px" viewBox="0 0 144 39" version="1.1" xmlns="http://www.w3.org/2000/svg" xmlns:xlink="http://www.w3.org/1999/xlink" xmlns:sketch="http://www.bohemiancoding.com/sketch/ns">
    <!-- Generator: Sketch 3.3.3 (12081) - http://www.bohemiancoding.com/sketch -->
    <title>Logo</title>
    <desc>Created with Sketch.</desc>
    <defs>
        <path id="path-1" d="M37.2348297,36.4525 C38.2571517,35.4298958 38.2554855,33.7702083 37.2349338,32.749375 L5.58273034,1.08854167 C4.56051241,0.0659375 2.90388621,0.065 1.8806269,1.08854167 L0.830291724,2.13927083 C-0.192030345,3.161875 -0.190364138,4.8215625 0.830187586,5.84239583 L32.482391,37.5033333 C33.504609,38.5258333 35.1612352,38.5267708 36.1844945,37.5032292 L37.2348297,36.4525 L37.2348297,36.4525 Z"></path>
        <path id="path-3" d="M2.76798621,0.0529166667 C1.32213517,0.0529166667 0.150166897,1.22875 0.150166897,2.67458333 L0.150166897,36.0148958 C0.150166897,37.4628125 1.32088552,38.6365625 2.76798621,38.6365625 L4.25351379,38.6365625 C5.69926069,38.6365625 6.8713331,37.4607292 6.8713331,36.0148958 L6.8713331,2.67458333 C6.8713331,1.22666667 5.70051034,0.0529166667 4.25351379,0.0529166667 L2.76798621,0.0529166667 L2.76798621,0.0529166667 Z"></path>
        <path id="path-5" d="M16.7551155,16.9189591 L32.5812179,1.08854167 C33.6017697,0.0676041667 35.2609993,0.0659375 36.2833214,1.08854167 L37.3337607,2.13927083 C38.3569159,3.1628125 38.3560828,4.81979167 37.3337607,5.84239583 L5.68155724,37.5033333 C4.66100552,38.5241667 3.00188,38.5258333 1.97955793,37.5032292 L0.929118621,36.4525 C-0.0930693975,35.4300299 -0.0933082081,33.775448 0.925806909,32.7525889 L16.7551155,16.9189591 L16.7551155,16.9189591 Z"></path>
        <linearGradient x1="1028.18821%" y1="940.040354%" x2="-851.887617%" y2="2820.12106%" id="linearGradient-7">
            <stop stop-color="#3EB709" offset="0%"></stop>
            <stop stop-color="#3FB709" offset="2%"></stop>
            <stop stop-color="#44B308" offset="46%"></stop>
            <stop stop-color="#48A117" offset="50%"></stop>
            <stop stop-color="#536649" offset="52%"></stop>
            <stop stop-color="#565656" offset="54%"></stop>
            <stop stop-color="#565656" offset="100%"></stop>
        </linearGradient>
        <path id="path-8" d="M23.8407131,21.9191667 C24.8630352,20.8965625 24.8570993,19.2326042 23.8354021,18.210625 L5.67301793,0.0432291667 L0.920475172,4.7971875 L19.0827552,22.9644792 C20.1080972,23.9901042 21.7670145,23.9933333 22.7902738,22.9697917 L23.8407131,21.9191667 L23.8407131,21.9191667 Z"></path>
    </defs>
    <g id="Page-1" stroke="none" stroke-width="1" fill="none" fill-rule="evenodd" sketch:type="MSPage">
        <g id="Logo" sketch:type="MSLayerGroup" transform="translate(0.000000, -4.000000)">
            <g id="image" transform="translate(0.000000, 4.000000)">
                <g id="Group-67">
                    <mask id="mask-2" sketch:name="Clip 66" fill="white">
                        <use xlink:href="#path-1"></use>
                    </mask>
                    <g id="Clip-66"></g>
                    <path d="M46.4495786,34.6009375 L34.3333386,46.7205208 L-8.38445724,3.99083333 L3.73178276,-8.12875 L46.4495786,34.6009375 Z" id="Fill-65" fill="#565656" sketch:type="MSShapeGroup" mask="url(#mask-2)"></path>
                </g>
                <g id="Group-70" transform="translate(15.620690, 0.000000)">
                    <mask id="mask-4" sketch:name="Clip 69" fill="white">
                        <use xlink:href="#path-3"></use>
                    </mask>
                    <g id="Clip-69"></g>
                    <path d="M-5.05672966,-5.15541667 L12.0782297,-5.15541667 L12.0782297,43.8448958 L-5.05672966,43.8448958 L-5.05672966,-5.15541667 Z" id="Fill-68" fill="#565656" sketch:type="MSShapeGroup" mask="url(#mask-4)"></path>
                </g>
                <g id="Group-73">
                    <mask id="mask-6" sketch:name="Clip 72" fill="white">
                        <use xlink:href="#path-5"></use>
                    </mask>
                    <g id="Clip-72"></g>
                    <path d="M34.4322697,-0.763020833 L39.1848124,3.99083333 L3.83060966,39.3547917 L-0.922037241,34.6009375 L34.4322697,-0.763020833 Z" id="Fill-71" fill="url(#linearGradient-7)" sketch:type="MSShapeGroup" mask="url(#mask-6)"></path>
                </g>
                <g id="Group-79" transform="translate(13.537931, 14.583333)">
                    <mask id="mask-9" sketch:name="Clip 78" fill="white">
                        <use xlink:href="#path-8"></use>
                    </mask>
                    <g id="Clip-78"></g>
                    <path d="M33.0554621,20.0675 L20.9392221,32.1870833 L-6.44322207,4.7971875 L5.67301793,-7.32239583 L33.0554621,20.0675 Z" id="Fill-77" fill="#44B308" sketch:type="MSShapeGroup" mask="url(#mask-9)"></path>
                </g>
            </g>
            <g id="text" transform="translate(44.820690, 0.083333)" sketch:type="MSTextLayer">
                <g id="Group-83">
                    <text id="KABADIWALLA" font-family="DIN Condensed" font-size="22.3063097" font-weight="bold" line-spacing="20" fill="#575757">
                        <tspan x="0.104137931" y="16.7012804">KABADIWALLA</tspan>
                    </text>
                    <text id="CONNECT" font-family="DIN Condensed" font-size="22.3063097" font-weight="bold" line-spacing="19" fill="#40B508">
                        <tspan x="0.104137931" y="37.4075694">CONNECT</tspan>
                    </text>
                    <text id="TM" font-family=".Helvetica Neue DeskInterface" font-size="4.46126194" font-weight="normal" fill="#575757">
                        <tspan x="68.2103448" y="29.3978445">TM</tspan>
                    </text>
                </g>
            </g>
        </g>
    </g>
</svg>